%YAML 1.1
%TAG !u! tag:unity3d.com,2011:
--- !u!1 &159848
GameObject:
  m_ObjectHideFlags: 0
  m_CorrespondingSourceObject: {fileID: 0}
  m_PrefabInternal: {fileID: 100100000}
  serializedVersion: 6
  m_Component:
  - component: {fileID: 456452}
  - component: {fileID: 11449844}
  m_Layer: 0
  m_Name: InAppBrowserBridge
  m_TagString: Untagged
  m_Icon: {fileID: 0}
  m_NavMeshLayer: 0
  m_StaticEditorFlags: 0
  m_IsActive: 1
--- !u!4 &456452
Transform:
  m_ObjectHideFlags: 1
  m_CorrespondingSourceObject: {fileID: 0}
  m_PrefabInternal: {fileID: 100100000}
  m_GameObject: {fileID: 159848}
  m_LocalRotation: {x: 0, y: 0, z: 0, w: 1}
  m_LocalPosition: {x: 598, y: 241.5, z: 0}
  m_LocalScale: {x: 1, y: 1, z: 1}
  m_Children: []
  m_Father: {fileID: 0}
  m_RootOrder: 0
  m_LocalEulerAnglesHint: {x: 0, y: 0, z: 0}
--- !u!114 &11449844
MonoBehaviour:
  m_ObjectHideFlags: 1
  m_CorrespondingSourceObject: {fileID: 0}
  m_PrefabInternal: {fileID: 100100000}
  m_GameObject: {fileID: 159848}
  m_Enabled: 1
  m_EditorHideFlags: 0
  m_Script: {fileID: 11500000, guid: 28c3a3e819d2b4adaa0b23283b204ba5, type: 3}
  m_Name: 
  m_EditorClassIdentifier: 
  onJSCallback:
    m_PersistentCalls:
      m_Calls: []
    m_TypeName: InAppBrowserBridge+BrowserLoadingCallback, Assembly-CSharp, Version=0.0.0.0,
      Culture=neutral, PublicKeyToken=null
  onBrowserFinishedLoading:
    m_PersistentCalls:
      m_Calls: []
    m_TypeName: InAppBrowserBridge+BrowserLoadingCallback, Assembly-CSharp, Version=0.0.0.0,
      Culture=neutral, PublicKeyToken=null
  onBrowserStartedLoading:
    m_PersistentCalls:
      m_Calls: []
    m_TypeName: InAppBrowserBridge+BrowserLoadingCallback, Assembly-CSharp, Version=0.0.0.0,
      Culture=neutral, PublicKeyToken=null
  onBrowserFinishedLoadingWithError:
    m_PersistentCalls:
      m_Calls: []
    m_TypeName: InAppBrowserBridge+BrowserLoadingWithErrorCallback, Assembly-CSharp,
      Version=0.0.0.0, Culture=neutral, PublicKeyToken=null
  onBrowserClosed:
    m_PersistentCalls:
      m_Calls: []
    m_TypeName: UnityEngine.Events.UnityEvent, UnityEngine.CoreModule, Version=0.0.0.0,
      Culture=neutral, PublicKeyToken=null
  onAndroidBackButtonPressed:
    m_PersistentCalls:
      m_Calls: []
    m_TypeName: UnityEngine.Events.UnityEvent, UnityEngine.CoreModule, Version=0.0.0.0,
      Culture=neutral, PublicKeyToken=null
--- !u!1001 &100100000
Prefab:
  m_ObjectHideFlags: 1
  serializedVersion: 2
  m_Modification:
    m_TransformParent: {fileID: 0}
    m_Modifications: []
    m_RemovedComponents: []
  m_SourcePrefab: {fileID: 0}
  m_RootGameObject: {fileID: 159848}
  m_IsPrefabAsset: 1
