{
  "project_info": {
    "project_number": "34254111402",
    "firebase_url": "https://mazzee-3b1c4.firebaseio.com",
    "project_id": "mazzee-3b1c4",
    "storage_bucket": "mazzee-3b1c4.appspot.com"
  },
  "client": [
    {
      "client_info": {
        "mobilesdk_app_id": "1:34254111402:android:1eb5babb7f6342dc",
        "android_client_info": {
          "package_name": "com.Whizzy.ManagerMobile"
        }
      },
      "oauth_client": [
        {
          "client_id": "34254111402-bhvcv1gga8fgfeof7ank70b3vo6jll2t.apps.googleusercontent.com",
          "client_type": 3
        }
      ],
      "api_key": [
        {
          "current_key": "AIzaSyAJwBRGbSYAXUlAZOpJCEkMqwfnwZZtG8M"
        }
      ],
      "services": {
        "appinvite_service": {
          "other_platform_oauth_client": [
            {
              "client_id": "34254111402-bhvcv1gga8fgfeof7ank70b3vo6jll2t.apps.googleusercontent.com",
              "client_type": 3
            },
            {
              "client_id": "34254111402-ibl5v3d95kuu8meil7q1rt3ne9feqaap.apps.googleusercontent.com",
              "client_type": 2,
              "ios_info": {
                "bundle_id": "com.Whizzy.ManagerMobile",
                "app_store_id": "1446206194"
              }
            }
          ]
        }
      }
    }
  ],
  "configuration_version": "1"
}