%YAML 1.1
%TAG !u! tag:unity3d.com,2011:
--- !u!114 &11400000
MonoBehaviour:
  m_ObjectHideFlags: 0
  m_CorrespondingSourceObject: {fileID: 0}
  m_PrefabInstance: {fileID: 0}
  m_PrefabAsset: {fileID: 0}
  m_GameObject: {fileID: 0}
  m_Enabled: 1
  m_EditorHideFlags: 0
  m_Script: {fileID: -976953855, guid: a5d85d6345681874b9b718d3692e675a, type: 3}
  m_Name: UMPSettings
  m_EditorClassIdentifier: 
  _assetPath: Assets/UniversalMediaPlayer
  _useAudioSource: 0
  _useExternalLibraries: 1
  _librariesPath: C:\Program Files\VideoLAN\VLC\
  _playersAndroid: 7
  _playersIPhone: 3
  _androidExportedPaths: []
  _youtubeDecryptFunction: \bc\s*&&\s*a\.set\([^,]+,\s*(?:encodeURIComponent\s*\()?\s*([\w$]+)\(
